{
  "lerna": "2.11.0",
  "packages": [
    "packages/*"
  ],
  "npmClient": "yarn",
  "useWorkspaces": true,
  "version": "1.0.0",
  "command": {
    "version": {
      "conventionalCommits": true,
      "yes": true,
      "message": "chore(release): publish %s [skip ci]"
    }
  }
}
